{
    "immortal" : {
        "name": "immortal",
        "title": "Immortal",
        "description": "While you are insane, convert all damage dealt to your hit locations to brain damage. You are so busy reveling in your own glory that you cannot spend survival while insane."
    },
    "vestiphobia" : {
        "name": "vestiphobia",
        "title": "Vestiphobia",
        "description": "You cannot wear armor at the body location. If you are wearing armor at the body location when you gain this disorders, archive it as you tear it off your person!"
    },
    "hyperactive" : {
        "name": "hyperactive",
        "title": "Hyperactive",
        "description": "During the showdown, you must move at least 1 space every round."
    },
    "seizures" : {
        "name": "seizures",
        "title": "Seizures",
        "description": "During the showdown, whenever you suffer damage to your head location, you are knocked down."
    },
    "anxiety" : {
        "name": "anxiety",
        "title": "Anxiety",
        "description": "At the start of each showdown, gain the %b%priority target%b% token unless you have %b%stinky%b% gear in your gear grid."
    },
    "hemophobia" : {
        "name": "hemophobia",
        "title": "Hemophobia",
        "description": "During the showdown, whenever a survivor (including you) gains a bleeding token, you are knocked down."
    },
    "indecision" : {
        "name": "indecision",
        "title": "Indecision",
        "description": "If you are the event revealer of hunt events that call on you to make a roll, roll twice and use the lower result."
    },
    "bingeEating" : {
        "name": "bingeEating",
        "title": "Binge Eating",
        "description": "You cannot %b%depart%b% unless you have %b%consumable%b% gear in your gear grid. You must consume if a choice to consume arises."
    },
    "rageholic" : {
        "name": "rageholic",
        "title": "Rageholic",
        "description": "Whenever you suffer a severe injury, also suffer the %b%frenzy%b% brain trauma."
    },
    "traumatized" : {
        "name": "traumatized",
        "title": "Traumatized",
        "description": "Whenever you end your act adjacent to a monster, you are knocked down."
    },
    "quixotic" : {
        "name": "quixotic",
        "title": "Quixotic",
        "description": "If you are insane when you %b%depart%b%, gain +1 survival and +1 strength token."
    },
    "monsterPanic" : {
        "name": "monsterPanic",
        "title": "Monster Panic",
        "description": "Whenever you suffer brain damage from an %b%Intimidate%b% action, suffer 1 additional brain damage."
    },
    "hoarder" : {
        "name": "hoarder",
        "title": "Hoarder",
        "description": "Whenever you are a %b%returning survivor%b%, archive 1 resource gained from the showdown and gain +1 courage."
    },
    "squeamish" : {
        "name": "squeamish",
        "title": "Squeamish",
        "description": "You cannot %b%depart%b% with any %b%stinky%b% gear in your gear grid. If a status or effect would cause you to become stinky, lose all your survival."
    },
    "postTraumaticStress" : {
        "name": "postTraumaticStress",
        "title": "Post-Traumatic Stress",
        "description": "Next settlement phase, you do not contribute or participate in any endeavors. Skip the next hunt to recover.",
        "survivorEffects" : {
            "skipNextHunt": true
        }
    },
    "secretive" : {
        "name": "secretive",
        "title": "Secretive",
        "description": "When you are a %b%returning survivor%b%, you quickly become preoccupied with your own affairs. You must skip the next hunt to deal with them."
    },
    "prey" : {
        "name": "prey",
        "title": "Prey",
        "description": "You may not spend survival unless you are insane."
    },
    "apathetic" : {
        "name": "apathetic",
        "title": "Apathetic",
        "description": "You cannot use or gain survival. You cannot gain courage. Cure this disorder if you have 8+ understanding.",
        "survivorEffects" : {
            "canSpendSurvival": false,
            "canGainSurvival": false
        }
    },
    "fearOfTheDark" : {
        "name": "fearOfTheDark",
        "title": "Fear of the Dark",
        "description": "You retire. If you gain this disorder during a hunt or showdown, you put on a brave face until you return to the settlement, vowing never to leave the Lantern Hoard again."
    },
    "coprolalia" : {
        "name": "coprolalia",
        "title": "Coprolalia",
        "description": "All your gear is %b%noisy%b%. You are always a threat unless you are knocked down, even if an effect says otherwise."
    },
    "honorable" : {
        "name": "honorable",
        "title": "Honorable",
        "description": "You cannot attack a monster from its blind spot or if it is knocked down."
    },
    "weakSpot" : {
        "name": "weakSpot",
        "title": "Weak Spot",
        "description": "When you gain this disorder, roll a random hit location and record it. You cannot %b%depart%b% unless you have armor at this hit location."
    },
    "aichmophobia" : {
        "name": "aichmophobia",
        "title": "Aichmophobia",
        "description": "You cannot activate or %b%depart%b% with axes, swords, spears, daggers, scythes, or katars in your gear grid."
    },
    "motionSickness" : {
        "name": "motionSickness",
        "title": "Motion Sickness",
        "description": "Whenever you suffer %b%knockback%b%, gain 1 bleeding token.",
        "expansion": "dung-beetle-knight"
    },
    "verminObsession" : {
        "name": "verminObsession",
        "title": "Vermin Obsession",
        "description": "While there is a %b%Bug Spot%b% terrain tile on the showdown board, you are so overwhelmed that you are %b%doomed%b%.",
        "expansion": "dung-beetle-knight"
    },
    "flowerAddiction" : {
        "name": "flowerAddiction",
        "title": "Flower Addiction",
        "description": "You may only %b%depart%b% to hunt the Flower Knight.  After you %b%depart%b%, cure this disorder.",
        "expansion": "flower-knight"
    },
    "ghostlyBeauty" : {
        "name": "ghostlyBeauty",
        "title": "Ghostly Beauty",
        "description": "Double all insanity you gain.  Double all survival you spend.",
        "expansion": "flower-knight"
    },
    "narcissistic" : {
        "name": "narcissistic",
        "title": "Narcissistic",
        "description": "You may not wear armor at the head location.  If you are wearing armor at the head location when you gain this disorder, archive it.",
        "expansion": "flower-knight"
    },
    "shallowLungs" : {
        "name": "shallowLungs",
        "title": "Shallow Lungs",
        "description": "When you %b%encourage%b% you are knocked down.",
        "expansion": "lion-knight"
    },
    "stageFright" : {
        "name": "stageFright",
        "title": "Stage Fright",
        "description": "Whenever you become %b%doomed%b% or gain the %b%priority target%b% token, lose 1 survival.",
        "expansion": "lion-knight"
    },
    "primaDonna" : {
        "name": "primaDonna",
        "title": "Prima Donna",
        "description": "Each survivor turn, you must take your act first (roll off each turn if multiple survivors have this disorder).",
        "expansion": "lion-knight"
    },
    "unlucky" : {
        "name": "unlucky",
        "title": "Unlucky",
        "description": "You cannot critically wound.",
        "expansion": "lion-knight"
    },
    "absentSeizures" : {
        "name": "absentSeizures",
        "title": "Absent Seizures",
        "description": "The first time you would suffer a brain trauma each showdown, you are instead knocked down and forget a fighting art (erase it).",
        "expansion": "gorm"
    },
    "megalophobia" : {
        "name": "megalophobia",
        "title": "Megalophobia",
        "description": "You may not %b%depart%b% for hunts or showdowns with monsters that occupy more than 4 spaces on the showdown board.",
        "expansion": "gorm"
    },
    "controlophobia" : {
        "name": "controlophobia",
        "title": "Controlophobia",
        "description": "While you are the monster controller, double any damage you suffer.",
        "expansion": "spidicules"
    },
    "revenge" : {
        "name": "revenge",
        "title": "Revenge",
        "description": "When a survivor dies during the showdown, suffer the %b%Frenzy%b% brain trauma.",
        "expansion": "spidicules"
    },
    "tinyArachnophobia" : {
        "name": "tinyArachnophobia",
        "title": "Tiny Arachnophobia",
        "description": "You cannot carry any gear with the amber keyword.  You cannot gain any resources with the silk keyword.",
        "expansion": "spidicules"
    },
    "enfeebled" : {
        "name": "enfeebled",
        "title": "Enfeebled",
        "description": "It takes one less bleeding token to kill you.",
        "expansion": "lion-god"
    },
    "delicious" : {
        "name": "delicious",
        "title": "Delicious",
        "description": "You are still considered a threat when you are knocked down (unless you use an effect that says otherwise).",
        "expansion": "lion-god"
    },
    "tunnelVision" : {
        "name": "tunnelVision",
        "title": "Tunnel Vision",
        "description": "When you spend , you may only activate weapons.",
        "expansion": "lion-god"
    },
    "starkRaving" : {
        "name": "starkRaving",
        "title": "Stark Raving",
        "description": "You are always %b%insane%b%, regardless of your insanity.",
        "expansion": "lion-god"
    },
    "hyperSensitivity" : {
        "name": "hyperSensitivity",
        "title": "Hyper-Sensitivity",
        "description": "You may %b%dodge%b% one additional time per round.  Whenever you are hit by an attack you must %b%dodge%b% at least once, if possible.",
        "expansion": "slenderman"
    },
    "spiralGanglia" : {
        "name": "spiralGanglia",
        "title": "Spiral Ganglia",
        "description": "At the start of the showdown, gain the %b%Darkness Awareness%b% survivor status card.",
        "expansion": "slenderman"
    },
    "emotionless" : {
        "name": "emotionless",
        "title": "Emotionless",
        "description": "You cannot gain +1 strength tokens.",
        "expansion": "sunstalker"
    },
    "sunDrunk" : {
        "name": "sunDrunk",
        "title": "Sun-Drunk",
        "description": "When you have any +1 strength tokens you cannot %b%dash%b%, %b%dodge%b%, or %b%Run Away%b%.",
        "expansion": "sunstalker"
    },
    "overprotective" : {
        "name": "overprotective",
        "title": "Overprotective",
        "description": "When an adjacent survivor is knocked down, you are also knocked down as you rush to their aid.",
        "expansion": "sunstalker"
    },
    "performanceAnxiety" : {
        "name": "performanceAnxiety",
        "title": "Performance Anxiety",
        "description": "You cannot be nominated for %b%Intimacy%b%.  Cure this disorder if you have 8+ courage.",
        "expansion": "dragon-king"
    },
    "arithmopihilia" : {
        "name": "arithmopihilia",
        "title": "Arithmophilia",
        "description": "When you gain this disorder, roll 1d5.  Your movement is that number.",
        "expansion": "dragon-king"
    },
    "destined" : {
        "name": "destined",
        "title": "Destined",
        "description": "If you do not %b%depart%b%, lose all survival and insanity.",
        "expansion": "dragon-king"
    },
    "superstitious" : {
        "name": "superstitious",
        "title": "Superstitious",
        "description": "You cannot activate or %b%depart%b% with %b%other%b% gear in your gear grid.",
        "expansion": "dragon-king"
    }
}
