{
    "core": {
        "boneSmith": {
            "boneAxe": 0,
            "boneBlade": 0,
            "boneClub": 0,
            "boneDagger": 0,
            "boneDarts": 0,
            "bonePickaxe": 0,
            "boneSickle": 0,
            "skullHelm": 0
        },
        "skinnery": {
            "bandages": 0,
            "rawhideArmorSet": 0,
            "rawhideBoots": 0,
            "rawhideDrum": 0,
            "rawhideGloves": 0,
            "rawhideHeadband": 0,
            "rawhidePants": 0,
            "rawhideVest": 0,
            "rawhideWhip": 0
        },
        "organGrinder": {
            "driedAcanthus": 0,
            "fecalSalve": 0,
            "luckyCharm": 0,
            "monsterGrease": 0,
            "monsterToothNecklace": 0,
            "stoneNoses": 0
        },
        "catarium": {
            "catEyeCirclet": 0,
            "catFangKnife": 0,
            "catGutBow": 0,
            "clawHeadArrow": 0,
            "frenzyDrink": 0,
            "kingSpear": 0,
            "lionBeastKatar": 0,
            "lionHeaddress": 0,
            "lionSkinCloak": 0,
            "whiskerHarp": 0,
            "whiteLionArmorSet": 0,
            "whiteLionBoots": 0,
            "whiteLionCoat": 0,
            "whiteLionGauntlet": 0,
            "whiteLionHelm": 0,
            "whiteLionSkirt": 0
        },
        "stoneCircle": {
            "beastKnuckle": 0,
            "bloodPaint": 0,
            "blueCharm": 0,
            "boneEarrings": 0,
            "bossMehndi": 0,
            "greenCharm": 0,
            "lanceOfLonginus": 0,
            "redCharm": 0,
            "screamingArmorSet": 0,
            "screamingBracers": 0,
            "screamingCoat": 0,
            "screamingHorns": 0,
            "screamingLegWarmers": 0,
            "screamingSkirt": 0
        },
        "plumery": {
            "arcBow": 0,
            "birdBread": 0,
            "bloomSphere": 0,
            "crestCrown": 0,
            "featherMantle": 0,
            "featherShield": 0,
            "hollowSword": 0,
            "hollowpointArrow": 0,
            "hoursRing": 0,
            "phoenixArmorSet": 0,
            "phoenixFaulds": 0,
            "phoenixGauntlet": 0,
            "phoenixGreaves": 0,
            "phoenixHelm": 0,
            "phoenixPlackart": 0,
            "sonicTomahawk": 0
        },
        "leatherWorker": {
            "hunterWhip": 0,
            "leatherArmorSet": 0,
            "leatherBoots": 0,
            "leatherBracers": 0,
            "leatherCuirass": 0,
            "leatherMask": 0,
            "leatherSkirt": 0,
            "roundLeatherShield": 0
        },
        "weaponCrafter": {
            "bloodSheath": 0,
            "counterweightedAxe": 0,
            "fingerOfGod": 0,
            "rainbowKatana": 0,
            "scrapDagger": 0,
            "scrapSword": 0,
            "skullcapHammer": 0,
            "whistlingMace": 0,
            "zanbato": 0
        },
        "blacksmith": {
            "beaconShield": 0,
            "dragonSlayer": 0,
            "lanternArmorSet": 0,
            "lanternCuirass": 0,
            "lanternDagger": 0,
            "lanternGauntlets": 0,
            "lanternGlaive": 0,
            "lanternGreaves": 0,
            "lanternHelm": 0,
            "lanternMail": 0,
            "lanternSword": 0,
            "perfectSlayer": 0,
            "ringWhip": 0,
            "scrapShield": 0
        },
        "barberSurgeon": {
            "almanac": 0,
            "brainMint": 0,
            "bugTrap": 0,
            "elderEarrings": 0,
            "firstAidKit": 0,
            "muskBomb": 0,
            "scavengerKit": 0,
            "speedPowder": 0
        },
        "maskMaker": {
            "antelopeMask": 0,
            "deathMask": 0,
            "godMask": 0,
            "manMask": 0,
            "phoenixMask": 0,
            "whiteLionMask": 0
        },
        "Rare Gear": {
            "adventureSword": 0,
            "butcherCleaver": 0,
            "forsakerMask": 0,
            "lanternHalberd": 0,
            "muramasa": 0,
            "regalFaulds": 0,
            "regalGauntlet": 0,
            "regalGreaves": 0,
            "regalHelm": 0,
            "regalPlackart": 0,
            "steelShield": 0,
            "steelSword": 0,
            "thunderMaul": 0,
            "twilightSword": 0
        },
        "exhaustedLanternHoard": {
            "finalLantern": 0,
            "oxidizedBeaconShield": 0,
            "oxidizedLanternDagger": 0,
            "oxidizedLanternGlaive": 0,
            "oxidizedLanternHelm": 0,
            "oxidizedLanternSword": 0,
            "oxidizedRingWhip": 0,
            "survivorsLantern": 0
        },
        "Other": {
            "portcullisKey": 0
        },
        "Starting Gear": {
            "cloth": 0,
            "foundingStone": 0
        }
    },
    "dragon-king": {
        "dragonArmory": {
            "blastShield": 0,
            "blastSword": 0,
            "blueCore": 0,
            "dragonArmorSet": 0,
            "dragonBelt": 0,
            "dragonBiteBolt": 0,
            "dragonBoots": 0,
            "dragonChakram": 0,
            "dragonGloves": 0,
            "dragonMantle": 0,
            "dragonSkullHelm": 0,
            "nuclearKnife": 0,
            "nuclearScythe": 0,
            "redCore": 0,
            "shieldedQuiver": 0,
            "talonKnife": 0
        },
        "Rare Gear": {
            "huskOfDestiny": 0
        }
    },
    "dung-beetle-knight": {
        "wetResinCrafter": {
            "calcifiedCenturyGreaves": 0,
            "calcifiedDiggingClaw": 0,
            "calcifiedShoulderPads": 0,
            "centuryGreaves": 0,
            "centuryShoulderPads": 0,
            "dbkErrantBadge": 0,
            "diggingClaws": 0,
            "elasticHarness": 0,
            "rainbowWingBelt": 0,
            "rollingArmorSet": 0,
            "scarabCirclet": 0,
            "seasonedMonsterMeat": 0,
            "theBeetleBomb": 0
        },
        "weaponCrafter": {
            "calcifiedZanbato": 0
        },
        "Rare Gear": {
            "hiddenCrimsonJewel": 0,
            "regeneratingBlade": 0,
            "calcifiedJuggernautBlade": 0,
            "trashCrown": 0
        }
    },
    "flower-knight": {
        "Sense Memory": {
            "flowerKnightBadge": 0,
            "satchel": 0,
            "vespertineArrow": 0,
            "vespertineBow": 0,
            "vespertineCello": 0,
            "vespertineFoil": 0
        },
        "Rare Gear": {
            "flowerKnightHelm": 0,
            "replicaFlowerSword": 0,
            "sleepingVirusFlower": 0
        }
    },
    "gorm": {
        "gormery": {
            "acidToothDagger": 0,
            "armorSpikes": 0,
            "blackSword": 0,
            "gaxe": 0,
            "gormentArmorSet": 0,
            "gormentBoots": 0,
            "gormentMask": 0,
            "gormentSleeves": 0,
            "gormentSuit": 0,
            "gorn": 0,
            "greaterGaxe": 0,
            "knuckleShield": 0,
            "pulseLantern": 0,
            "regenerationSuit": 0,
            "ribBlade": 0,
            "riotMace": 0
        },
        "gormchymist": {
            "healingPotion": 0,
            "lifeElixer": 0,
            "powerPotion": 0,
            "steadfastPotion": 0,
            "wisdomPotion": 0
        }
    },
    "green-knight": {
        "Green Armor": {
            "fetosaurus": 0,
            "greenBoots": 0,
            "greenFaulds": 0,
            "greenGloves": 0,
            "greenHelm": 0,
            "greenPlate": 0,
            "griswaldo": 0
        }
    },
    "lion-god": {
        "Rare Gear": {
            "ancientLionClaws": 0,
            "boneWitchMehndi": 0,
            "butchersBlood": 0,
            "deathMehndi": 0,
            "glyphOfSolitude": 0,
            "goldenPlate": 0,
            "lanternMehndi": 0,
            "lionGodStatue": 0,
            "necromancersEye": 0
        }
    },
    "lion-knight": {
        "Rare Gear": {
            "hideousDisguise": 0,
            "lionKnightBadge": 0,
            "lionKnightsLeftClaw": 0,
            "lionKnightsRightClaw": 0
        }
    },
    "manhunter": {
        "Rare Gear": {
            "huntersHeart": 0,
            "toolBelt": 0,
            "manhuntersHat": 0,
            "deathpact": 0,
            "reverberatingLantern": 0
        }
    },
    "slenderman": {
        "Rare Gear": {
            "darkWaterVial": 0,
            "gloomBracelets": 0,
            "gloomCream": 0,
            "gloomHammer": 0,
            "gloomKatana": 0,
            "gloomMehndi": 0,
            "gloomSheath": 0,
            "gloomCoatedArrow": 0,
            "raptorWormCollar": 0,
            "slenderOvule": 0
        }
    },
    "spidicules": {
        "silkMill": {
            "amberEdge": 0,
            "amberPoleaxe": 0,
            "blueRing": 0,
            "bodySuit": 0,
            "greenRing": 0,
            "hoodedScrapKatar": 0,
            "redRing": 0,
            "silkArmorSet": 0,
            "silkBomb": 0,
            "silkBoots": 0,
            "silkRobes": 0,
            "silkSash": 0,
            "silkTurban": 0,
            "silkWhip": 0,
            "silkWraps": 0,
            "throwingKnife": 0
        },
        "Rare Gear": {
            "grinningVisage": 0,
            "theWeaver": 0
        }
    },
    "sunstalker": {
        "skyreefSanctuary": {
            "cycloidScaleArmorSet": 0,
            "cycloidScaleHood": 0,
            "cycloidScaleJacket": 0,
            "cycloidScaleShoes": 0,
            "cycloidScaleSkirt": 0,
            "cycloidScaleSleeves": 0,
            "denticleAxe": 0,
            "inkBloodBow": 0,
            "inkSword": 0,
            "quiverAndSunstring": 0,
            "shadowSalivaShawl": 0,
            "skleaver": 0,
            "skyHarpoon": 0,
            "sunLureAndHook": 0,
            "sunsharkArrows": 0,
            "sunsharkBow": 0,
            "sunspotDart": 0,
            "sunspotLantern": 0
        }
    }
}
