{
    "lanternHoard" : {
        "name": "lanternHoard",
        "title": "Lantern Hoard",
        "settlementEffects": {
            "endeavors": [
                {
                    "endeavorCost": 1,
                    "extraCost": {"bone": 1, "hide": 1, "organ": 1},
                    "title": "Innovate",
                    "description": "Draw 2 cards from the Innovation deck and add 1 to the settlement."
                },
                {
                    "endeavorCost": 1,
                    "title": "Build",
                    "description": "boneSmith"
                },
                {
                    "endeavorCost": 1,
                    "title": "Build",
                    "description": "skinnery"
                },
                {
                    "endeavorCost": 1,
                    "title": "Build",
                    "description": "organGrinder"
                },
                {
                    "endeavorCost": 1,
                    "title": "Shared Experience",
                    "description": "Nominate a survivor that has 2 or more Hunt XP than yourself. They describe illuminating details of their desired death. If you are not deaf, gain +1 Hunt XP from their story. If the nominated survivor has a shattered jaw, instead gain +1 insanity."
                }
            ]
        }
    },
    "skinnery" : {
        "name": "skinnery",
        "title": "Skinnery",
        "settlementEffects": {
            "endeavors": [
                {
                    "endeavorCost": 1,
                    "title": "Build",
                    "extraCost": {"hide": 3, "organ": 1},
                    "description": "leatherWorker"
                }
            ]
        }
    },
    "boneSmith" : {
        "name": "boneSmith",
        "title": "Bone Smith",
        "settlementEffects": {
            "endeavors": [
                {
                    "endeavorCost": 1,
                    "title": "Build",
                    "extraCost": {"bone": 3, "hide": 1},
                    "description": "weaponCrafter"
                }
            ]
        }
    },
    "organGrinder" : {
        "name": "organGrinder",
        "title": "Organ Grinder",
        "settlementEffects": {
            "endeavors": [
                {
                    "endeavorCost": 1,
                    "title": "Augury",
                    "description": "Roll 1d10\n1-3: Lose 1 resource from the settlement. If you do, gain +1 understanding.\n4-7: Gain +1 survival.\n8+ Story Event: %b%Intimacy%b%."
                },
                {
                    "endeavorCost": 1,
                    "title": "Stone Noses",
                    "description": "Build a stone nose"
                },
                {
                    "endeavorCost": 1,
                    "title": "Build",
                    "extraCost": {"organ": 3, "hide": 1},
                    "description": "stoneCircle"
                }
            ]
        }
    },
    "catarium" : {
        "name": "catarium",
        "title": "Catarium"
    },
    "stoneCircle" : {
        "name": "stoneCircle",
        "title": "Stone Circle",
        "settlementEffects": {
            "endeavors": [
                {
                    "endeavorCost": 1,
                    "title": "Harvest Ritual",
                    "description": "Requires Forbidden Dance - Spend any number of monster resources to draw an equal number of basic resources."
                }
            ]
        }
    },
    "plumery" : {
        "name": "plumery",
        "title": "Plumery"
    },
    "leatherWorker" : {
        "name": "leatherWorker",
        "title": "Leather Worker",
        "settlementEffects": {
            "endeavors": [
                {
                    "endeavorCost": 1,
                    "title": "Leather-Making",
                    "description": "Spend any number of hide to add an equal number of leather strange resources to the settlement storage."
                }
            ]
        }
    },
    "barberSurgeon" : {
        "name": "barberSurgeon",
        "title": "Barber Surgeon",
        "endeavors": [
            {
                "endeavorCost": 1,
                "title": "Trepanning",
                "description": "Roll 1d10\n1-2: Too deep. Suffer the %b%intracranial hemorrhage%b% severe head injury.\n3-6: Relief. Cure 1 disorder.\n7-9: Cure %b%intracranial hemorrhage%b%.\n10+: Expanded conciousness. Gain 1 random disorder and 1 random fighting art."
            }
        ]
    },
    "weaponCrafter" : {
        "name": "weaponCrafter",
        "title": "Weapon Crafter",
        "settlementEffects": {
            "endeavors": [
                {
                    "endeavorCost": 1,
                    "title": "Scrap Scavenge",
                    "description": "Roll 1d10\n1-5: Something attacks from the darkness, spend 1 %b%survival%b% or die!\n6-9: Gain 1 broken lantern resource.\n10+: Long walk. Gain +1 courage."
                },
                {
                    "endeavorCost": 1,
                    "title": "Special Innovate",
                    "extraCost": {"scrap": 2, "bone": 5, "organ": 5},
                    "description": "scrapSmelting"
                }
            ]
        }
    },
    "blacksmith" : {
        "name": "blacksmith",
        "title": "Blacksmith"
    },
    "maskMaker" : {
        "name": "maskMaker",
        "title": "Mask Maker",
        "settlementEffects": {
            "endeavors":[
                {
                    "endeavorCost": 1,
                    "title": "White Lion Mask",
                    "description": "You may hunt the Great Golden Cat"
                },
                {
                    "endeavorCost": 1,
                    "title": "Antelope Mask",
                    "description": "You may hunt the Mad Steed"
                },
                {
                    "endeavorCost": 1,
                    "title": "Phoenix Mask",
                    "description": "You may hunt the Golden Eyed King"
                }
            ]
        }
    },
    "exhaustedLanternHoard" : {
        "name": "exhaustedLanternHoard",
        "title": "Exhausted Lantern Hoard",
        "settlementEffects": {
            "endeavors":[
                {
                    "endeavorCost": 2,
                    "title": "Story Event",
                    "description": "Lantern Research - Pulse discoveries"
                },
                {
                    "endeavorCost": 1,
                    "title": "Story Event",
                    "description": "Oxidation"
                },
                {
                    "endeavorCost": 1,
                    "title": "",
                    "description": "Build Survivor's Lantern"
                },
                {
                    "endeavorCost": 1,
                    "title": "Investigate",
                    "description": "Roll 1d10\n1-2: Poisoned! Unless you have Legendary Lungs, you die.\n3: Shaken, you return to the surface sobbing. Gain 1 random disorder.\n4-6: Add your roll result %b%Broken Lantern%b% basic resources to settlement storage.\n7-8: Add 2 %b%Cocoon Membrane%b% strange resources to settlement storage.\n9+: Add 1 %b%Lantern Tube%b% strange resource to settlement storage."
                }
            ]
        }
    },
    "wetResinCrafter" : {
        "name": "wetResinCrafter",
        "title": "Wet Resin Crafter",
        "expansion": "dung-beetle-knight"
    },
    "gormery" : {
        "name": "gormery",
        "title": "Gormery",
        "expansion": "gorm"
    },
    "gormchymist" : {
        "name": "gormchymist",
        "title": "Gormchymist",
        "settlementEffects": {
            "endeavors":[
                {
                    "endeavorCost": 1,
                    "title": "Special Innovate",
                    "plainDescription": true,
                    "extraCost": {"strange resource": 1, "gorm brain": 1},
                    "description": "Gain the next Gormchymy innovation"
                }
            ]
        },
        "expansion": "gorm"
    },
    "silkMill" : {
        "name": "silkMill",
        "title": "Silk Mill",
        "expansion": "spidicules"
    },
    "skyreefSanctuary" : {
        "name": "skyreefSanctuary",
        "title": "Skyreef Sanctuary",
        "expansion": "sunstalker"
    },
    "theSun" : {
        "name":"theSun" ,
        "title": "The Sun",
        "settlementEffects": {
            "endeavors": [
                {
                    "endeavorCost": 1,
                    "extraCost": {"bone": 1, "hide": 1, "organ": 1},
                    "title": "Innovate",
                    "description": "Draw 2 cards from the Innovation deck and add 1 to the settlement."
                },
                {
                    "endeavorCost": 1,
                    "title": "Build",
                    "description": "boneSmith"
                },
                {
                    "endeavorCost": 1,
                    "title": "Build",
                    "description": "skinnery"
                },
                {
                    "endeavorCost": 1,
                    "title": "Build",
                    "description": "organGrinder"
                }
            ]
        },
        "expansion": "sunstalker"
    },
    "sacredPool" : {
        "name": "sacredPool",
        "title": "Sacred Pool",
        "settlementEffects": {
            "endeavors": [
                {
                    "endeavorCost": 1,
                    "title": "Sacred Water",
                    "description": "Once per settlement phase, the settlement drinks the oil that builds up on the surface of the pool. Story Event: Intimacy."
                },
                {
                    "endeavorCost": 2,
                    "title": "Purification Ceremony",
                    "description": "You may endeavor here once per lifetime.  Your body is infused with sacred water and Purified (record this).  You cannot depart this year.  Gain the Protective disorder and roll 1d10.  On 8+ gain +1 permanent attribute of your choice.  Otherwise, gain +1 permanent strength or accuracy."
                },
                {
                    "endeavorCost": 1,
                    "title": "Sun Sealing",
                    "description": "Requires Sauna Shrine - You sit for a year, in the boiling darkness of the Shrine.  Gain the Hellfire secret fighting art.  You may not depart this year."
                }
            ]
        },
        "expansion": "sunstalker"
    },
    "dragonArmory" : {
        "name": "dragonArmory",
        "title": "Dragon Armory",
        "expansion": "dragon-king"
    },
    "throne" : {
        "name":"throne" ,
        "title": "Throne",
        "settlementEffects": {
            "endeavors": [
                {
                    "endeavorCost": 1,
                    "extraCost": {"bone": 1, "hide": 1, "organ": 1},
                    "title": "Innovate",
                    "description": "Draw 2 cards from the Innovation deck and add 1 to the settlement."
                },
                {
                    "endeavorCost": 1,
                    "title": "Build",
                    "description": "boneSmith"
                },
                {
                    "endeavorCost": 1,
                    "title": "Build",
                    "description": "skinnery"
                },
                {
                    "endeavorCost": 1,
                    "title": "Build",
                    "description": "organGrinder"
                },
                {
                    "endeavorCost": 1,
                    "title": "Fear and Trembling",
                    "description": "Once per settlement phase, roll 1d10\n1-2: With a warm, wet smack the survivor's lifeless body tumbles from the dais, followed almost immediately by their head. They are dead.\n3-6: The survivor stumbles down the gleaming stairs, clutching their disfigured face. They suffer the %b%blind%b% severe head injury and gain a %b%Scar%b%.\n7-9: The Tyrant hefts the struggling survivor into the air by their leg, molding their flesh with its claws. Remove all of the survivor's permanent waist injuries.\n10+: The Tyrant leans in and speaks softly to the survivor. They return pale and stricken, making hoarse exclamations before falling over dead. Draw the top card of the innovation deck and add it to your settlement at no cost."
                }
            ]
        },
        "expansion": "dragon-king"
    }
}
