{
    "Basic": {
        "???": {
            "id": "???",
            "title": "???",
            "keywords": ["hide", "organ", "bone", "consumable"],
            "description": ""
        },
        "brokenLantern": {
            "id": "brokenLantern",
            "title": "Broken Lantern",
            "keywords": ["scrap"],
            "description": "",
            "craftingPriority": 0
        },
        "loveJuice": {
            "id": "loveJuice",
            "title": "Love Juice",
            "keywords": ["organ", "consumable"],
            "description": "During the settlement phase, you may archive this to trigger intimacy. Nominated survivors must be able to consume.",
            "craftingPriority": 2
        },
        "monsterBone": {
            "id": "monsterBone",
            "title": "Monster Bone",
            "keywords": ["bone"],
            "description": "",
            "craftingPriority": 0
        },
        "monsterHide": {
            "id": "monsterHide",
            "title": "Monster Hide",
            "keywords": ["hide"],
            "description": "",
            "craftingPriority": 0
        },
        "monsterOrgan": {
            "id": "monsterOrgan",
            "title": "Monster Organ",
            "keywords": ["organ", "consumable"],
            "description": "If you consume this, archive this card. Roll 1d10. On a result of 6+ you contract a parasite. Archive all consumable gear in your gear grid now.",
            "craftingPriority": 0
        },
        "scrap": {
            "id": "scrap",
            "title": "Scrap",
            "keywords": ["scrap"],
            "description": "",
            "craftingPriority": 0
        },
        "skull": {
            "id": "skull",
            "title": "Skull",
            "keywords": ["bone"],
            "description": "",
            "craftingPriority": 0
        }
    },
    "Phoenix": {
        "birdBeak": {
            "id": "birdBeak",
            "title": "Bird Beak",
            "keywords": ["bone"],
            "description": ""
        },
        "blackSkull": {
            "id": "blackSkull",
            "title": "Black Skull",
            "keywords": ["iron", "skull", "bone"],
            "description": "",
            "craftingPriority": 5
        },
        "hollowWingBones": {
            "id": "hollowWingBones",
            "title": "Hollow Wing Bones",
            "keywords": ["bone"],
            "description": ""
        },
        "muculentDroppings": {
            "id": "muculentDroppings",
            "title": "Muculent Droppings",
            "keywords": ["organ"],
            "description": ""
        },
        "phoenixEye": {
            "id": "phoenixEye",
            "title": "Phoenix Eye",
            "keywords": ["organ", "scrap"],
            "description": ""
        },
        "phoenixFinger": {
            "id": "phoenixFinger",
            "title": "Phoenix Finger",
            "keywords": ["bone"],
            "description": "When you gain this, a survivor of your choice gains +3 insanity."
        },
        "phoenixWhisker": {
            "id": "phoenixWhisker",
            "title": "Phoenix Whisker",
            "keywords": ["hide"],
            "description": ""
        },
        "pustules": {
            "id": "pustules",
            "title": "Pustules",
            "keywords": ["organ", "consumable"],
            "description": ""
        },
        "rainbowDroppings": {
            "id": "rainbowDroppings",
            "title": "Rainbow Droppings",
            "keywords": ["organ", "consumable"],
            "description": "Consume: Archive this and roll 1d10. On 7+, gain +1 permanent speed. Otherwise, your heart explodes, killing you instantly."
        },
        "shimmeringHalo": {
            "id": "shimmeringHalo",
            "title": "Shimmering Halo",
            "keywords": ["organ"],
            "description": ""
        },
        "smallFeathers": {
            "id": "smallFeathers",
            "title": "Small Feathers",
            "keywords": ["hide"],
            "description": ""
        },
        "smallHandParasites": {
            "id": "smallHandParasites",
            "title": "Small Hand Parasites",
            "keywords": ["organ"],
            "description": ""
        },
        "tailFeathers": {
            "id": "tailFeathers",
            "title": "Tail Feathers",
            "keywords": ["hide"],
            "description": ""
        },
        "wishbone": {
            "id": "wishbone",
            "title": "Wishbone",
            "keywords": ["bone"],
            "description": ""
        }
    },
    "Screaming Antelope": {
        "beastSteak": {
            "id": "beastSteak",
            "title": "Beast Steak",
            "keywords": ["organ", "consumable"],
            "description": ""
        },
        "bladder": {
            "id": "bladder",
            "title": "Bladder",
            "keywords": ["organ", "consumable"],
            "description": ""
        },
        "largeFlatTooth": {
            "id": "largeFlatTooth",
            "title": "Large Flat Tooth",
            "keywords": ["bone"],
            "description": "When you gain this, a survivor of your choice gains +1 insanity."
        },
        "musclyGums": {
            "id": "musclyGums",
            "title": "Muscly Gums",
            "keywords": ["organ", "consumable"],
            "description": ""
        },
        "pelt": {
            "id": "pelt",
            "title": "Pelt",
            "keywords": ["hide"],
            "description": ""
        },
        "screamingBrain": {
            "id": "screamingBrain",
            "title": "Screaming Brain",
            "keywords": ["organ", "consumable"],
            "description": "Consume: Archive this and gain survival up to the current limit."
        },
        "shankBone": {
            "id": "shankBone",
            "title": "Shank Bone",
            "keywords": ["bone"],
            "description": ""
        },
        "spiralHorn": {
            "id": "spiralHorn",
            "title": "Spiral Horn",
            "keywords": ["bone"],
            "description": ""
        }
    },
    "White Lion": {
        "curiousHand": {
            "id": "curiousHand",
            "title": "Curious Hand",
            "keywords": ["hide"],
            "description": "When you gain this, a random survivor gains +1 insanity."
        },
        "eyeOfCat": {
            "id": "eyeOfCat",
            "title": "Eye of Cat",
            "keywords": ["organ", "consumable"],
            "description": ""
        },
        "goldenWhiskers": {
            "id": "goldenWhiskers",
            "title": "Golden Whiskers",
            "keywords": ["organ"],
            "description": ""
        },
        "greatCatBones": {
            "id": "greatCatBones",
            "title": "Great Cat Bones",
            "keywords": ["bone"],
            "description": ""
        },
        "lionClaw": {
            "id": "lionClaw",
            "title": "Lion Claw",
            "keywords": ["bone"],
            "description": ""
        },
        "lionTail": {
            "id": "lionTail",
            "title": "Lion Tail",
            "keywords": ["hide"],
            "description": ""
        },
        "lionTestes": {
            "id": "lionTestes",
            "title": "Lion Testes",
            "keywords": ["organ", "consumable"],
            "description": ""
        },
        "shimmeringMane": {
            "id": "shimmeringMane",
            "title": "Shimmering Mane",
            "keywords": ["hide"],
            "description": "Archive this to gain 2 basic hide resources."
        },
        "sinew": {
            "id": "sinew",
            "title": "Sinew",
            "keywords": ["organ"],
            "description": ""
        },
        "whiteFur": {
            "id": "whiteFur",
            "title": "White Fur",
            "keywords": ["hide"],
            "description": ""
        }
    },
    "Strange": {
        "blackLichen": {
            "id": "blackLichen",
            "title": "Black Lichen",
            "keywords": ["bone", "organ", "hide", "consumable", "other"],
            "description": "You may consume this. If you do, your lips turn gray, your hair whitens, and you become infertile. Gain +1 courage, +1 understanding and suffer the destroyed genitals severe waist injury."
        },
        "cocoonMembrane": {
            "id": "cocoonMembrane",
            "title": "Cocoon Membrane",
            "keywords": ["organ", "other"],
            "description": ""
        },
        "elderCatTeeth": {
            "id": "elderCatTeeth",
            "title": "Elder Cat Teeth",
            "keywords": ["bone"],
            "description": ""
        },
        "freshAcanthus": {
            "id": "freshAcanthus",
            "title": "Fresh Acanthus",
            "keywords": ["herb"],
            "description": "Archive this to fully heal 1 hit location, including injury levels and armor points."
        },
        "iron": {
            "id": "iron",
            "title": "Iron",
            "keywords": ["scrap", "iron"],
            "description": "",
            "craftingPriority": 0
        },
        "lanternTube": {
            "id": "lanternTube",
            "title": "Lantern Tube",
            "keywords": ["organ", "scrap"],
            "description": "When you gain this, roll 1d10. On a 6+ you find something stuck inside! Add 1 Broken Lantern basic resource to the settlement's storage."
        },
        "leather": {
            "id": "leather",
            "title": "Leather",
            "keywords": ["hide", "leather"],
            "description": ""
        },
        "legendaryHorns": {
            "id": "legendaryHorns",
            "title": "Legendary Horns",
            "keywords": ["bone", "scrap"],
            "description": ""
        },
        "perfectCrucible": {
            "id": "perfectCrucible",
            "title": "Perfect Crucible",
            "keywords": ["iron"],
            "description": "When you craft with Perfect Crucible, an ancient bacteria is released into the air. Suffer -1d10 population and archive this card.",
            "craftingPriority": 5
        },
        "phoenixCrest": {
            "id": "phoenixCrest",
            "title": "Phoenix Crest",
            "keywords": ["organ"],
            "description": ""
        },
        "secondHeart": {
            "id": "secondHeart",
            "title": "Second Heart",
            "keywords": ["organ", "bone"],
            "description": ""
        },
        "pituitaryGland": {
            "id": "pituitaryGland",
            "title": "Pituitary Gland",
            "keywords": ["organ"],
            "description": "Consume: archive this and roll 1d10.  On a 4+, gain +1 permanent strength.  Otherwise, you grow to giant size and die.",
            "expansion": "dragon-king"
        },
        "radiantHeart": {
            "id": "radiantHeart",
            "title": "Radiant Heart",
            "keywords": ["organ"],
            "description": "When you gain this resource, roll 1d10.  on a 3+, you burst into flames and die.",
            "expansion": "dragon-king"
        },
        "shiningLiver": {
            "id": "shiningLiver",
            "title": "Shining Liver",
            "keywords": ["organ"],
            "description": "",
            "expansion": "dragon-king"
        },
        "preservedCausticDung": {
            "id": "preservedCausticDung",
            "title": "Preserved Caustic Dung",
            "keywords": ["organ", "consumable", "dung"],
            "description": "",
            "expansion": "dung-beetle-knight"
        },
        "scell": {
            "id": "scell",
            "title": "Scell",
            "keywords": ["organ", "consumable"],
            "description": "",
            "expansion": "dung-beetle-knight"
        },
        "activeThyroid": {
            "id": "activeThyroid",
            "title": "Active Thyroid",
            "keywords": ["organ", "consumable"],
            "description": "Consume: archive this and roll 1d10.  On a 7+, gain +1 permanent speed.  Otherwise, your heart explodes, killing you instantly.",
            "expansion": "gorm"
        },
        "gormite": {
            "id": "gormite",
            "title": "Gormite",
            "keywords": ["scrap", "iron"],
            "description": "",
            "craftingPriority": 5,
            "expansion": "gorm"
        },
        "pureBulb": {
            "id": "pureBulb",
            "title": "Pure Bulb",
            "keywords": ["organ"],
            "description": "",
            "expansion": "gorm"
        },
        "stomachLining": {
            "id": "stomachLining",
            "title": "Stomach Lining",
            "keywords": ["organ"],
            "description": "",
            "expansion": "gorm"
        },
        "canopicJar": {
            "id": "canopicJar",
            "title": "Canopic Jar",
            "keywords": ["organ", "scrap"],
            "description": "When you gain this, remove 2 bleeding tokens.  During the settlement phase, you may archive this to Story Event: Death Reading.",
            "expansion": "lion-god"
        },
        "oldBlueBox": {
            "id": "oldBlueBox",
            "title": "Old Blue Box",
            "keywords": ["scrap"],
            "description": "During the settlement phase, you may archive this to Story Event: Death Reading.",
            "expansion": "lion-god"
        },
        "sarcophagus": {
            "id": "sarcophagus",
            "title": "Sarcophagus",
            "keywords": ["iron"],
            "description": "-2 movement while you have this.  During the settlement phase, you may archive this to Story Event: Death Reading.",
            "craftingPriority": 5,
            "expansion": "lion-god"
        },
        "silverUrn": {
            "id": "silverUrn",
            "title": "Silver Urn",
            "keywords": ["bone", "scrap"],
            "description": "During the settlement phase, you may archive this to Story Event: Death Reading.",
            "expansion": "lion-god"
        },
        "tryptch": {
            "id": "tryptch",
            "title": "Tryptch",
            "keywords": ["hide", "scrap"],
            "description": "When you gain this, gain +3 insanity.  During the settlement phase, you may archive this to Story Event: Death Reading.",
            "expansion": "lion-god"
        },
        "blisteringPlasmaFruit": {
            "id": "blisteringPlasmaFruit",
            "title": "Blistering Plasma Fruit",
            "keywords": ["organ", "consumable"],
            "description": "You may consume and archive this to gain the Nightmare Blood ability.",
            "expansion": "lonely-tree"
        },
        "driftingDreamFruit": {
            "id": "driftingDreamFruit",
            "title": "Drifting Dream Fruit",
            "keywords": ["consumable"],
            "description": "You may consume and archive this to select a Dream on the Birth of a Savior story event and gain all associated abilities.",
            "expansion": "lonely-tree"
        },
        "jaggedMarrowFruit": {
            "id": "jaggedMarrowFruit",
            "title": "Jagged Marrow Fruit",
            "keywords": ["bone", "scrap", "consumable"],
            "description": "You may consume and archive this to gain the Nightmare Spurs ability.",
            "expansion": "lonely-tree"
        },
        "lonelyFruit": {
            "id": "lonelyFruit",
            "title": "Lonely Fruit",
            "keywords": ["consumable"],
            "description": "During the settlement phase, you may consume and archive this to Story Event: Lonely Lady.",
            "expansion": "lonely-tree"
        },
        "porousFleshFruit": {
            "id": "porousFleshFruit",
            "title": "Porous Flesh Fruit",
            "keywords": ["hide", "consumable"],
            "description": "You may consume and archive this to gain the Nightmare Membrane ability.",
            "expansion": "lonely-tree"
        },
        "crimsonVial": {
            "id": "crimsonVial",
            "title": "Crimson Vial",
            "keywords": ["iron", "consumable"],
            "description": "You may consume and archive this to remove all bleeding tokens and any severe injury of your choice.",
            "craftingPriority": 5,
            "expansion": "manhunter"
        },
        "redVial": {
            "id": "redVial",
            "title": "Red Vial",
            "keywords": ["consumable"],
            "description": "You may consume and archive this to remove 2 bleeding tokens and gain +1 survival.",
            "expansion": "manhunter"
        },
        "crystalSwordMold": {
            "id": "crystalSwordMold",
            "title": "Crystal Sword Mold",
            "keywords": ["scrap", "iron"],
            "description": "",
            "craftingPriority": 5,
            "expansion": "slenderman"
        },
        "darkWater": {
            "id": "darkWater",
            "title": "Dark Water",
            "keywords": ["other"],
            "description": "You may consume and archive this to remove all your disorders, then gain a random disorder.",
            "expansion": "slenderman"
        },
        "silkenNervousSystem": {
            "id": "silkenNervousSystem",
            "title": "Silken Nervous System",
            "keywords": ["organ"],
            "description": "",
            "expansion": "spidicules"
        },
        "webSilk": {
            "id": "webSilk",
            "title": "Web Silk",
            "keywords": ["silk"],
            "description": "",
            "expansion": "spidicules"
        },
        "1000YearSunspot": {
            "id": "1000YearSunspot",
            "title": "1000 Year Sunspot",
            "keywords": ["bone", "organ"],
            "description": "When you craft with this, nominate a survivor.  They suffer the blind severe injury from working with this resource.",
            "expansion": "sunstalker"
        },
        "3000YearSunspot": {
            "id": "3000YearSunspot",
            "title": "3000 Year Sunspot",
            "keywords": ["bone", "organ", "scrap"],
            "description": "When you craft with this, nominate a survivor and roll 1d10.  On a 5+, they get a terrible headache and die.",
            "expansion": "sunstalker"
        },
        "bugfish": {
            "id": "bugfish",
            "title": "Bugfish",
            "keywords": ["fish", "organ"],
            "description": "Consume: gain +2 survival.  There is something in its belly!  Gain 1 random vermin and consume it immediately.  Archive this card.",
            "expansion": "sunstalker"
        },
        "hagfish": {
            "id": "hagfish",
            "title": "Hagfish",
            "keywords": ["fish", "bone", "hide"],
            "description": "Consume: your hair turns gray and you gain +1 Hunt XP.  Archive this card.",
            "expansion": "sunstalker"
        },
        "jowls": {
            "id": "jowls",
            "title": "Jowls",
            "keywords": ["fish", "iron"],
            "description": "When you gain Jowls, it bites off your nose!  If you have no nose, you die.  If you have Jowls, Hagfish, and Bugfish, you are inspired!  You may archive all 3 to gain the Filleting table innovation.",
            "craftingPriority": 5,
            "expansion": "sunstalker"
        },
        "salt": {
            "id": "salt",
            "title": "Salt",
            "keywords": [],
            "description": "You may add this to any cooking recipe to gain +1 permanent strength in addition to the recipe's listed benefits.",
            "expansion": "sunstalker"
        },
        "sunstones": {
            "id": "sunstones",
            "title": "Sunstones",
            "keywords": ["bone"],
            "description": "",
            "expansion": "sunstalker"
        },
        "lifeString": {
            "id": "lifeString",
            "title": "Life String",
            "keywords": [],
            "description": "",
            "expansion": "sunstalker"
        }
    },
    "Vermin": {
        "crabSpider": {
            "id": "crabSpider",
            "title": "Crab Spider",
            "keywords": ["vermin", "consumable", "hide"],
            "description": "Consume: Archive this and gain +3 survival."
        },
        "cyclopsFly": {
            "id": "cyclopsFly",
            "title": "Cyclops Fly",
            "keywords": ["vermin", "consumable"],
            "description": "Consume: Archive this and roll on the table."
        },
        "hissingCockroach": {
            "id": "hissingCockroach",
            "title": "Hissing Cockroach",
            "keywords": ["vermin", "consumable"],
            "description": "Consume: Archive this to lose all survival and gain 2d10 insanity. If you are insane, you must consume this."
        },
        "lonelyAnt": {
            "id": "lonelyAnt",
            "title": "Lonely Ant",
            "keywords": ["vermin", "consumable"],
            "description": "Consume: Archive this to swap your insantiy and survival values."
        },
        "nightmareTick": {
            "id": "nightmareTick",
            "title": "Nightmare Tick",
            "keywords": ["vermin", "consumable"],
            "description": "Consume: Archive this and roll on the table."
        },
        "swordBeetle": {
            "id": "swordBeetle",
            "title": "Sword Beetle",
            "keywords": ["vermin", "consumable"],
            "description": "Consume: Archive this and roll on the table."
        }
    },
    "Dragon King": {
        "cabledVein": {
            "id": "cabledVein",
            "title": "Cabled Vein",
            "keywords": ["organ"],
            "description": "",
            "expansion": "dragon-king"
        },
        "dragonIron": {
            "id": "dragonIron",
            "title": "Dragon Iron",
            "keywords": ["iron"],
            "description": "",
            "craftingPriority": 5,
            "expansion": "dragon-king"
        },
        "hardenedRibs": {
            "id": "hardenedRibs",
            "title": "Hardened Ribs",
            "keywords": ["bone"],
            "description": "",
            "expansion": "dragon-king"
        },
        "hornFragment": {
            "id": "hornFragment",
            "title": "Horn Fragment",
            "keywords": ["bone"],
            "description": "",
            "expansion": "dragon-king"
        },
        "husk": {
            "id": "husk",
            "title": "Husk",
            "keywords": ["hide"],
            "description": "",
            "expansion": "dragon-king"
        },
        "kingsClaws": {
            "id": "kingsClaws",
            "title": "King's Claws",
            "keywords": ["bone"],
            "description": "",
            "expansion": "dragon-king"
        },
        "kingsTongue": {
            "id": "kingsTongue",
            "title": "King's Tongue",
            "keywords": ["hide"],
            "description": "",
            "expansion": "dragon-king"
        },
        "radioactiveDung": {
            "id": "radioactiveDung",
            "title": "Radioactive Dung",
            "keywords": ["organ", "scrap"],
            "description": "",
            "expansion": "dragon-king"
        },
        "veinedWing": {
            "id": "veinedWing",
            "title": "Veined Wing",
            "keywords": ["hide"],
            "description": "",
            "expansion": "dragon-king"
        }
    },
    "Dung Beetle Knight": {
        "centuryFingernails": {
            "id": "centuryFingernails",
            "title": "Century Fingernails",
            "keywords": ["bone"],
            "description": "",
            "expansion": "dung-beetle-knight"
        },
        "beetleHorn": {
            "id": "beetleHorn",
            "title": "Beetle Horn",
            "keywords": ["bone"],
            "description": "",
            "expansion": "dung-beetle-knight"
        },
        "elytra": {
            "id": "elytra",
            "title": "Elytra",
            "keywords": ["bone", "hide", "organ"],
            "description": "",
            "expansion": "dung-beetle-knight"
        },
        "compoundEye": {
            "id": "compoundEye",
            "title": "Compound Eye",
            "keywords": ["organ", "consumable"],
            "description": "",
            "expansion": "dung-beetle-knight"
        },
        "centuryShell": {
            "id": "centuryShell",
            "title": "Century Shell",
            "keywords": ["hide", "iron"],
            "description": "",
            "craftingPriority": 5,
            "expansion": "dung-beetle-knight"
        },
        "scarabShell": {
            "id": "scarabShell",
            "title": "Scarab Shell",
            "keywords": ["hide"],
            "description": "",
            "expansion": "dung-beetle-knight"
        },
        "scarabWing": {
            "id": "scarabWing",
            "title": "Scarab Wing",
            "keywords": ["organ"],
            "description": "",
            "expansion": "dung-beetle-knight"
        },
        "underplateFungus": {
            "id": "underplateFungus",
            "title": "Underplate Fungus",
            "keywords": ["herb", "hide", "consumable"],
            "description": "",
            "expansion": "dung-beetle-knight"
        }
    },
    "Flower Knight": {
        "lanternBloom": {
            "id": "lanternBloom",
            "title": "Lantern Bloom",
            "keywords": ["flower", "hide", "perishable"],
            "description": "",
            "expansion": "flower-knight"
        },
        "lanternBud": {
            "id": "lanternBud",
            "title": "Lantern Bud",
            "keywords": ["flower", "scrap", "perishable"],
            "description": "",
            "expansion": "flower-knight"
        },
        "osseousBloom": {
            "id": "osseousBloom",
            "title": "Osseous Bloom",
            "keywords": ["flower", "bone", "perishable"],
            "description": "",
            "expansion": "flower-knight"
        },
        "sighingBloom": {
            "id": "sighingBloom",
            "title": "Sighing Bloom",
            "keywords": ["flower", "organ", "perishable"],
            "description": "",
            "expansion": "flower-knight"
        },
        "warblingBloom": {
            "id": "warblingBloom",
            "title": "Warbling Bloom",
            "keywords": ["flower", "hide", "perishable"],
            "description": "",
            "expansion": "flower-knight"
        }
    },
    "Gorm": {
        "acidGland": {
            "id": "acidGland",
            "title": "Acid Gland",
            "keywords": ["organ"],
            "description": "",
            "expansion": "gorm"
        },
        "denseBone": {
            "id": "denseBone",
            "title": "Dense Bone",
            "keywords": ["bone"],
            "description": "",
            "expansion": "gorm"
        },
        "gormBrain": {
            "id": "gormBrain",
            "title": "Gorm Brain",
            "keywords": ["organ"],
            "description": "",
            "expansion": "gorm"
        },
        "handedSkull": {
            "id": "handedSkull",
            "title": "Handed Skull",
            "keywords": ["bone"],
            "description": "",
            "expansion": "gorm"
        },
        "jigglingLard": {
            "id": "jigglingLard",
            "title": "Jiggling Lard",
            "keywords": ["organ", "hide"],
            "description": "",
            "expansion": "gorm"
        },
        "mammothHand": {
            "id": "mammothHand",
            "title": "Mammoth Hand",
            "keywords": ["bone", "hide", "organ"],
            "description": "",
            "expansion": "gorm"
        },
        "meatyRib": {
            "id": "meatyRib",
            "title": "Meaty Rib",
            "keywords": ["bone", "organ"],
            "description": "",
            "expansion": "gorm"
        },
        "milkyEye": {
            "id": "milkyEye",
            "title": "Milky Eye",
            "keywords": ["organ"],
            "description": "When this resource is gained, select a survivor to gain +3 insanity.",
            "expansion": "gorm"
        },
        "stoutHeart": {
            "id": "stoutHeart",
            "title": "Stout Heart",
            "keywords": ["organ"],
            "description": "",
            "expansion": "gorm"
        },
        "stoutHide": {
            "id": "stoutHide",
            "title": "Stout Hide",
            "keywords": ["hide"],
            "description": "",
            "expansion": "gorm"
        },
        "stoutKidney": {
            "id": "stoutKidney",
            "title": "Stout Kidney",
            "keywords": ["organ"],
            "description": "Consume: archive this and roll 1d10.  On a roll of 6+, gain 10 survival.  Otherwise, reduce your survival to 0.",
            "expansion": "gorm"
        },
        "stoutVertebrae": {
            "id": "stoutVertebrae",
            "title": "Stout Vertebrae",
            "keywords": ["bone"],
            "description": "",
            "expansion": "gorm"
        }
    },
    "Spidicules" : {
        "arachnidHeart": {
            "id": "arachnidHeart",
            "title": "Arachnid Heart",
            "keywords": ["organ"],
            "description": "",
            "expansion": "spidicules"
        },
        "chitin": {
            "id": "chitin",
            "title": "Chitin",
            "keywords": ["hide"],
            "description": "",
            "expansion": "spidicules"
        },
        "exoskeleton": {
            "id": "exoskeleton",
            "title": "Exoskeleton",
            "keywords": ["hide"],
            "description": "",
            "expansion": "spidicules"
        },
        "eyeballs": {
            "id": "eyeballs",
            "title": "Eyeballs",
            "keywords": ["organ"],
            "description": "",
            "expansion": "spidicules"
        },
        "largeAppendage": {
            "id": "largeAppendage",
            "title": "Large Appendage",
            "keywords": ["bone"],
            "description": "",
            "expansion": "spidicules"
        },
        "serratedFangs": {
            "id": "serratedFangs",
            "title": "Serrated Fangs",
            "keywords": ["bone"],
            "description": "",
            "expansion": "spidicules"
        },
        "smallAppendages": {
            "id": "smallAppendages",
            "title": "Small Appendages",
            "keywords": ["hide"],
            "description": "",
            "expansion": "spidicules"
        },
        "spinnerets": {
            "id": "spinnerets",
            "title": "Spinnerets",
            "keywords": ["organ", "scrap"],
            "description": "",
            "expansion": "spidicules"
        },
        "stomach": {
            "id": "stomach",
            "title": "Stomach",
            "keywords": ["organ"],
            "description": "Consume: Archive this card to gain +1 Hunt XP.",
            "expansion": "spidicules"
        },
        "thickWebSilk": {
            "id": "thickWebSilk",
            "title": "Thick Web Silk",
            "keywords": ["silk", "hide"],
            "description": "",
            "expansion": "spidicules"
        },
        "unlaidEggs": {
            "id": "unlaidEggs",
            "title": "Unlaid Eggs",
            "keywords": ["organ", "consumable"],
            "description": "During the settlement phase, you may consume and archive these delicious eggs to gain 10 survival.",
            "expansion": "spidicules"
        },
        "venomSack": {
            "id": "venomSack",
            "title": "Venom Sack",
            "keywords": ["organ", "consumable"],
            "description": "Consume and roll 1d10.  On a 1-5, you die instantly.  On a 6+, gain the Death Touch Secret Fighting Art.",
            "expansion": "spidicules"
        }
    },
    "Sunstalker": {
        "blackLens": {
            "id": "blackLens",
            "title": "Black Lens",
            "keywords": ["organ"],
            "description": "",
            "expansion": "sunstalker"
        },
        "brainRoot": {
            "id": "brainRoot",
            "title": "Brain Root",
            "keywords": ["organ"],
            "description": "",
            "expansion": "sunstalker"
        },
        "cycloidScales": {
            "id": "cycloidScales",
            "title": "Cycloid Scales",
            "keywords": ["hide"],
            "description": "",
            "expansion": "sunstalker"
        },
        "fertilityTentacle": {
            "id": "fertilityTentacle",
            "title": "Fertility Tentacle",
            "keywords": ["organ"],
            "description": "",
            "expansion": "sunstalker"
        },
        "hugeSunteeth": {
            "id": "hugeSunteeth",
            "title": "Huge Sunteeth",
            "keywords": ["bone"],
            "description": "",
            "expansion": "sunstalker"
        },
        "innerShadowScale": {
            "id": "innerShadowScale",
            "title": "Inner Shadow Scale",
            "keywords": ["hide"],
            "description": "",
            "expansion": "sunstalker"
        },
        "prismaticGills": {
            "id": "prismaticGills",
            "title": "Prismatic Gills",
            "keywords": ["organ"],
            "description": "When you gain this, gain the Emotionless disorder.",
            "expansion": "sunstalker"
        },
        "shadowInkGland": {
            "id": "shadowInkGland",
            "title": "Shadow Ink Gland",
            "keywords": ["organ"],
            "description": "",
            "expansion": "sunstalker"
        },
        "shadowTentacles": {
            "id": "shadowTentacles",
            "title": "Shadow Tentacles",
            "keywords": ["organ", "hide"],
            "description": "When you gain this during the hunt or showdown, return it to the resource deck and draw again if any survivors are blind.",
            "expansion": "sunstalker"
        },
        "sharkTongue": {
            "id": "sharkTongue",
            "title": "Shark Tongue",
            "keywords": ["organ"],
            "description": "",
            "expansion": "sunstalker"
        },
        "smallSunteeth": {
            "id": "smallSunteeth",
            "title": "Small Sunteeth",
            "keywords": ["bone"],
            "description": "",
            "expansion": "sunstalker"
        },
        "stinkLung": {
            "id": "stinkLung",
            "title": "Stink Lung",
            "keywords": ["organ"],
            "description": "",
            "expansion": "sunstalker"
        },
        "sunsharkBlubber": {
            "id": "sunsharkBlubber",
            "title": "Sunshark Blubber",
            "keywords": ["organ"],
            "description": "",
            "expansion": "sunstalker"
        },
        "sunsharkBone": {
            "id": "sunsharkBone",
            "title": "Sunshark Bone",
            "keywords": ["bone"],
            "description": "",
            "expansion": "sunstalker"
        },
        "sunsharkFin": {
            "id": "sunsharkFin",
            "title": "Sunshark Fin",
            "keywords": ["bone", "hide"],
            "description": "",
            "expansion": "sunstalker"
        }
    }
}
