{
    "core": ["firstDay", "lightsInTheSky", "murder", "skullEater", "darkTrader", "huntReenactment", "darkDentist", "strangerInTheDark", "weirdDream", "triathlonOfDeath", "elderCouncil", "haunted", "clingingMist", "nickname", "glossolalia", "cracksInTheGround", "rivalry", "openMaw", "heatWave", "acidStorm", "plague"],
    "gorm": ["gormClimate"],
    "spidicules": ["silkStorm", "seasonOfTheSpiderling"],
    "slenderman": ["slenderBlight", "phantom"]
}
