{
    "core": ["prologueWhiteLion", "whiteLionLevel1", "whiteLionLevel2", "whiteLionLevel3", "screamingAntelopeLevel1", "screamingAntelopeLevel2", "screamingAntelopeLevel3", "phoenixLevel1", "phoenixLevel2", "phoenixLevel3", "gregalope", "beastOfSorrow", "greatGoldenCat", "madSteed", "goldenEyedKingOf1000Years"],
    "dung-beetle-knight": ["dungBeetleKnightLevel1", "dungBeetleKnightLevel2", "dungBeetleKnightLevel3", "theOldMaster"],
    "flower-knight": ["flowerKnightLevel1", "flowerKnightLevel2", "flowerKnightLevel3"],
    "lion-knight": ["lionKnightLevel1", "lionKnightLevel2", "lionKnightLevel3"],
    "gorm": ["gormLevel1", "gormLevel2", "gormLevel3"],
    "spidicules": ["spidiculesLevel1", "spidiculesLevel2", "spidiculesLevel3"],
    "lion-god": ["lionGodLevel1", "lionGodLevel2", "lionGodLevel3"],
    "sunstalker": ["sunstalkerLevel1", "sunstalkerLevel2", "sunstalkerLevel3"],
    "dragon-king": ["dragonKingLevel1", "dragonKingLevel2", "dragonKingLevel3"]
}
