en,de,pl,fr,es,pt
Select proficiencies,,Wybierz biegłości,,,
Select abilities,,Wybierz umiejętności,,,
Weapon Profs,,Biegłości w broni,,,
Added weapon proficiency \"%name%\" to list of all proficiencies,,Dodano biegłość \"%name%\" do listy wszystkich biegłości,,,
Removed weapon proficiency \"%name%\" from list of all proficiencies,,Usunięto biegłość \"%name%\" z listy wszystkich biegłości,,,
Added gear \"%name%\" to list of all gear,,Dodano ekwipunek \"%name%\" do listy wszystkich ekwipunków,,,
Removed gear \"%name%\" from list of all gear,,Usunieto ekwipunek \"%name%\" z listy wszystkich ekwipunków,,,
Added resource \"%name%\" to list of all resources,,Dodano zasób \"%name%\" do listy wszystkich zasobów,,,
Removed resource \"%name%\" from list of all resources,,Usunieto zasób \"%name%\" z listy wszystkich zasobów,,,
Added ability \"%name%\" to list of all abilities,,Dodano umiejętność \"%name%\" do listy wszystkich umiejętności,,,
Removed ability \"%name%\" from list of all abilities,,Usunięto umiejętność \"%name%\" z listy wszystkich umiejętności,,,
Tap instead of long press to mark departing on survivor list,,Dotknij zamiast długiego przyciśnięcia aby oznaczyć wyruszenie na liście Ocalałych,,,
Add New Armor Set,,Dodaj nowy zestaw pancerza,,,
Armor Amount,,Liczba pkt pancerza,,,
Armor amount,,Liczba pkt pancerza,,,
Armor locations,,Lokacje pancerza,,,
Select location,,Wybierz lokacje,,,
All,,Wszystkie,,,
1 armor set,,1 zestaw pancerza,,,
%num% armor sets,,%num% zestawów pancerza,,,
Armor Sets,,Zestawy pancerza,,,
Select armor sets,,Wybierz zestawy pancerza,,,
Select armor set,,Wybierz zestaw pancerza,,,
%num%  to each hit location,,%num%  do każdego miejsca trafienia,,,
Add %num%  to each hit location,,Dodaj %num%  do każdego miejsca trafienia,,,
Tap two slots to swap them,,Dotknij 2 pozycje aby je zamienić miejscami,,,
Added armor set \"%name%\" to list of all armor sets,,Dodano zestaw pancerza \"%name%\" do listy wszystkich zestawów pancerza,,,
Removed armor set \"%name%\" from list of all armor sets,,Usunięto zestaw pancerza \"%name%\" z listy wszystkich zestawów pancerza,,,
Armor set changed to %name%,,Zestaw pancerza zmieniony na %name%,,,
Armor set removed,,,,,
Select Monster,,Wybierz potwora,,,
Depart,,Wyrusz,,,
Departing applies automatic on-depart bonuses and resets armor,,Wyruszenie automatycznie przyzna bonusy "przy wyruszeniu" i zresetuje pancerz,,,
Automatically applied on departure:,,Automatycznie przyznawane bonusy przy wyruszeniu:,,,
Manually applied:,,Przyznawane ręcznie:
,,,
Edit Showdown,,Edytuj starcie,,,
Showdown Type,,Typ starcia,,,
Monster,,Potwór,,,
You must have at least one departing survivor in order to depart!,,Musisz wyznaczyć przynajmniej 1 Ocalałego aby wyruszyć!,,,
Select a showdown to be able to depart,,Wybierz starcie aby móc wyruszyć,,,
Automatic departing bonuses applied,,Automatyczne przyznano bonusy wyruszającym,,,
Proficiency point earned,,Zdobyto punkt biegłości,,,
Weapon proficiency point earned,,Zdobyto punkt biegłości w broni,,,
Weapon proficiency point un-earned,,Usunięto punkt biegłości w broni,,,