{
    "id": 1,
    "key": 0,
    "name": "",
    "endeavors": 0,
    "survivalLimit": 1,
    "population": 0,
    "deathCount": 0,
    "expansions": [{"core": "all"}],
    "campaign": "PotSun",
    "innovations": [],
    "innovationDeck": ["sunLanguage"],
    "ly" : 0,
    "inspirationalStatue": "",
    "notes": "",
    "archived" : false,
    "principles": {
        "newLife": false,
        "death": false,
        "society": false,
        "conviction": false
    },
    "milestones": {
        "firstDeath": {"complete": false, "conditions": {"firstDeath": {"value": 0, "complete": false}}},
        "edgedTonometry": {"complete": false, "conditions": {"edgedTonometry": {"value": 0, "complete": false}}},
        "population": {"complete": false, "conditions": {"population": {"value": 0, "complete": false}}}
    },
    "quarryShowdowns": ["whiteLionLevel1", "whiteLionLevel2", "whiteLionLevel3"],
    "nemeses": [],
    "defeatedMonsters": [],
    "customStoryEvents": [],
    "locations": [],
    "globalEndeavors": [],
    "settlementEffects": {},
    "allLocations": ["theSun", "sacredPool"],
    "allInnovations" : ["sunLanguage", "saunaShrine", "handsOfTheSun", "aquarobics", "umbilicalBank"],
    "allStoryEvents": ["edgedTonomotry", "thePoolAndTheSun", "sunDipping", "theGreatSkyGift", "birthOfColor", "finalGift"],
    "allProficiencies": ["katana"],
    "allFightingArts": ["sunEater", "hellfire"],
    "allAbilities": ["childOfTheSun", "spec-katana", "purified", "reflection", "refraction"],
    "allNemesisEncounters": ["theGreatDevourer"],
    "allCursedItems" : [],
    "survivorSortOrder" : "asc",
    "survivorSortAttr" : "name",
    "customExpansions": {},
    "storage": {
        "resources": {
            "Strange": {
                "hagfish": 0,
                "lifeString" : 0
            }
        },
        "gear": {
            "Rare Gear": {
                "eyePatch" : 0,
                "godsString": 0,
                "apostleCrown": 0,
                "prismMace": 0,
                "sunringBow": 0,
                "sunVestments": 0
            }
        }
    },
    "log" : [],
    "loadouts" : {}
}
